id;business_id;first_name;last_name;email;phone_number;hire_date;salary;commission_pct
1;A1;Camélien;Rey;Boniface.Meunier75@yahoo.fr;repurpose withdrawal;2022-07-08T01:26:29;71697;45464
2;A2;Azélie;Lacroix;Agnan.Chevalier@gmail.com;withdrawal;2022-07-08T05:23:21;75289;21024
3;A3;Valéry;Aubry;Adalsinde.Perrin@gmail.com;Sleek;2022-07-07T14:26:45;71090;65309
4;A4;Auguste;Roussel;Alaine.Sanchez@hotmail.fr;reinvent orchestrate;2022-07-07T09:56:22;52820;82484
5;A5;Anastase;Fontaine;Laurence14@hotmail.fr;mobile Granite;2022-07-08T04:34:16;13439;33970
6;A6;Adrienne;Roux;Marine.Olivier73@gmail.com;Kazakhstan time-frame;2022-07-07T13:20:28;64329;13556
7;A7;Ernestine;Andre;Anal72@yahoo.fr;Devolved rich;2022-07-07T15:50:36;54588;45928
8;A8;Christiane;Schneider;Astart8@yahoo.fr;payment Bretagne;2022-07-08T05:54:00;3244;21747
9;A9;Désiré;Vasseur;Salom_Mercier98@hotmail.fr;white;2022-07-07T21:14:39;90189;81327
10;A10;Acanthe;Rey;Aubertine79@gmail.com;Table Alsace Checking;2022-07-07T09:54:49;32637;8639
